{
    "CN": "example.net Hosting Server",
    "hosts": [
        "localhost"
    ],
    "key": {
        "algo": "ecdsa",
        "size": 256
    },
    "names": [
        {
            "C": "US",
            "ST": "WA",
            "L": "Seattle"
        }
    ]
}

